module gitlab.com/toolkit3/xml-things

go 1.18

require (
        github.com/asaskevich/govalidator v0.0.0-20210307081110-f21760c49a8d // indirect
        github.com/aymerick/douceur v0.2.0 // indirect
        github.com/cnf/structhash v0.0.0-20201127153200-e1b16c1ebc08 // indirect
        github.com/dsnet/compress v0.0.1 // indirect
        github.com/golang/snappy v0.0.1 // indirect
        github.com/gorilla/css v1.0.0 // indirect
        github.com/json-iterator/go v1.1.12 // indirect
        github.com/logrusorgru/aurora v2.0.3+incompatible // indirect
        github.com/mholt/archiver v3.1.1+incompatible // indirect
        github.com/microcosm-cc/bluemonday v1.0.21 // indirect
        github.com/miekg/dns v1.1.50 // indirect
        github.com/modern-go/concurrent v0.0.0-20180306012644-bacd9c7ef1dd // indirect
        github.com/modern-go/reflect2 v1.0.2 // indirect
        github.com/nwaples/rardecode v1.1.0 // indirect
        github.com/pierrec/lz4 v2.6.0+incompatible // indirect
        github.com/pkg/errors v0.9.1 // indirect
        github.com/projectdiscovery/goflags v0.1.6 // indirect
        github.com/projectdiscovery/gologger v1.1.7 // indirect
        github.com/projectdiscovery/utils v0.0.4-0.20221214110533-9f95ee986a54 // indirect
        github.com/saintfish/chardet v0.0.0-20120816061221-3af4cd4741ca // indirect
        github.com/ulikunitz/xz v0.5.7 // indirect
        github.com/xi2/xz v0.0.0-20171230120015-48954b6210f8 // indirect
        golang.org/x/exp v0.0.0-20221019170559-20944726eadf // indirect
        golang.org/x/mod v0.6.0-dev.0.20220419223038-86c51ed26bb4 // indirect
        golang.org/x/net v0.1.0 // indirect
        golang.org/x/sys v0.1.0 // indirect
        golang.org/x/tools v0.1.12 // indirect
        gopkg.in/djherbis/times.v1 v1.3.0 // indirect
        gopkg.in/yaml.v3 v3.0.1 // indirect
)